…
And likewise, how you would subset just columns from the same sheet.


```r
read_excel(path, sheet = 1, range = cell_cols("B:D"))
```

```
## # A tibble: 113 x 3
##    `Desert Island Discs book choices` `Pulitzer Prize w `Askmetafilter.c
##    <chr>                              <chr>              <chr>            
##  1 (Feb 2008-Feb 2011)                (1918-2010)        http://ask.metaf
##  2 Anna Karenina                      A Bell for Adano   1984.0           
##  3 Blake                              A Confederacy of  Aesop's Fables   
##  4 Breakfast of Champions             A Death in the Fa Against the Grain
##  5 Decline and Fall                   A Fable            Alice's Adventur
##  6 His Dark Materials                 A Good Scent from An Explanation o
##  7 Jonathan Strange and Mr Norrell    A Summons to Memp Animal Farm      
##  8 Legacy                             A Thousand Acres   Atlas Shrugged   
##  9 Les Misrables                     Advise and Consent Aunt Julia and t
## 10 Letters to a Young Poet            Alice Adams        Blindness        
## # ... with 103 more rows
```
…
```r
library(googlesheets)
```


If you load googlesheets and ask it to list the googlesheets you have, googlesheets will open a new window and ask if it can have access to your googlesheets. If you say yes, you can return to R and breathe a sigh of relief. Your import of your googlesheets worked.


```r
gs_ls()
```

```
## # A tibble: 52 x 10
##    sheet_title  author perm  version updated             sheet_key ws_feed
##    <chr>        <chr>  <chr> <chr>   <dttm>              <chr>     <chr>  
##  1 CAGEF Time  "     r     new     2018-05-24 18:03:18 1SdrZhSp https:
##  2 "           "  ac rw    new     2018-05-24 18:02:25 1eiM1CJh https:
##  3 "           "  ac rw    new     2018-05-24 17:53:51 1ctyHaqo https:
##  4 "           "  ac rw    new     2018-05-24 17:47:11 1KChnoyH https:
##  5 "           "  ac rw    new     2018-05-24 17:46:42 1y-Tf6Vn https:
##  6 "           "  ac rw    new     2018-05-24 17:45:48 1k0qlncj https:
##  7 "           "  ac rw    new     2018-05-24 17:42:41 1Votk4h1 https:
##  8 "           "  ac rw    new     2018-05-24 17:23:22 1t2TpXLg https:
##  9 "           "  ac rw    new     2018-05-24 16:39:26 1iRB__yR https:
## 10 "           "  ac rw    new     2018-05-24 16:38:19 1hXxP3RT https:
## # ... with 42 more rows, and 3 more variables: alternate <chr>,
## #   self <chr>, alt_key <chr>
```
…
