…
***



There are still a few problems with words cutoff like 'solv', or 'flamethrower' and 'flamethrowers' being the same word, or 'north' and 'korea' belonging together for context. If we were serious about this dataset we would need to resolve these issues. We also have some html and twitter-specific tags that we will deal with shortly. 

Let's move ahead and count the number of occurences of each word and order them by frequency. We do this using our `dplyr` functions (Lesson 2).


```r
data.frame(words) %>% count(factor(words)) %>% arrange(desc(n))
```

```
## # A tibble: 1,778 x 2
##    `factor(words)`        n
##    <fct>              <int>
##  1 false                438
##  2 na                   321
##  3 a                    259
##  4 for                  170
##  5 the                  154
##  6 elonmusk             129
##  7 to                   115
##  8 href                 114
##  9 iphonea              108
## 10 relnofollowtwitter   108
## # ... with 1,768 more rows
```
…
```r
words <- anti_join(data.frame(words), stop_words, by=c("words" = "word"))
```

Let's look at our top words by count now, and save this order.


```r
words %>% count(words) %>% arrange(desc(n))
```

```
## # A tibble: 1,421 x 2
##    words        n
##    <fct>    <int>
##  1 elonmusk   129
##  2 boring      21
##  3 falcon      21
##  4 tesla       21
##  5 rocket      16
##  6 heavy       13
##  7 hat         12
##  8 time        12
##  9 coming      11
## 10 dont        11
## # ... with 1,411 more rows
```
…
We can now do our `anti_join` to remove 'stop words', and tally our remaining words and order them by descending counts.



```r
words <- anti_join(data.frame(words), stop_words, by=c("words" = "word"))

words %>% count(words) %>% arrange(desc(n)) 
```

```
## # A tibble: 1,623 x 2
##    words                    n
##    <fct>                <int>
##  1 realdonaldtrump         98
##  2 <a                      96
##  3 rel=nofollow>twitter    92
##  4 href=                   91
##  5 iphone<a>               87
##  6 president               27
##  7 people                  25
##  8 news                    23
##  9 country                 20
## 10 daca                    20
## # ... with 1,613 more rows
```
…
