…
</br>

Which latrine depth has the greatest mean number of OTUs?



```r
split_dat %>% 
  group_by(Latrine_Number) %>% 
  summarize(mean = mean(OTUs)) %>% 
  arrange(desc(mean))
```

```
## # A tibble: 22 x 2
##    Latrine_Number  mean
##    <chr>          <dbl>
##  1 17               415
##  2 16               403
##  3 11               338
##  4 20               335
##  5 10               328
##  6 8                236
##  7 15               207
##  8 3                206
##  9 18               201
## 10 12               188
## # ... with 12 more rows
```
…
Which site had the greatest number of bacteria? (Calculate the sum of and the mean of OTUs at for each combination of Country, Latrine_Number and Depth. Order the results by the highest sum, followed by the highest mean.)



```r
split_dat %>% 
  group_by(Country, Latrine_Number, Depth) %>% 
  summarize(sum = sum(OTUs), mean = mean(OTUs)) %>% 
  arrange(desc(sum), desc(mean))
```

```
## # A tibble: 81 x 5
## # Groups:   Country, Latrine_Number [28]
##    Country Latrine_Number Depth   sum  mean
##    <chr>   <chr>          <chr> <int> <dbl>
##  1 V       11             1     26730   514
##  2 T       2              9     24953   480
##  3 V       16             2     23963   461
##  4 V       3              1     23553   453
##  5 V       11             3     23100   444
##  6 V       3              2     22779   438
##  7 V       17             1     22417   431
##  8 V       17             2     20705   398
##  9 V       16             1     17907   344
## 10 V       20             1     17436   335
## # ... with 71 more rows
```
…
