Lesson 2 - Basic Life Skills: How to Read, Write, and Manipulate (Your Data)
…
And likewise, how you would subset just columns from the same sheet.

read_excel(path, sheet = 1, range = cell_cols("B:D"))

## # A tibble: 113 x 3
##    `Desert Island Disc `Pulitzer Prize winners `Askmetafilter.com Books 
##    <chr>                <chr>                    <chr>                     
##  1 (Feb 2008-Feb 2011)  (1918-2010)              http://ask.metafilter.com
##  2 Anna Karenina        A Bell for Adano         1984.0                    
##  3 Blake                A Confederacy of Dunces  Aesop's Fables            
##  4 Breakfast of Champi A Death in the Family    Against the Grain         
##  5 Decline and Fall     A Fable                  Alice's Adventures in Won
##  6 His Dark Materials   A Good Scent from a Str An Explanation of the Bir
##  7 Jonathan Strange an A Summons to Memphis     Animal Farm               
##  8 Legacy               A Thousand Acres         Atlas Shrugged            
##  9 Les Misrables       Advise and Consent       Aunt Julia and the Script
## 10 Letters to a Young  Alice Adams              Blindness                 
## #  with 103 more rows
…
You can subset columns by using the select() function. You can also reorder columns using this function. I want to to compare the depth of latrine 2 at 9cm compared to 10cm, but I want Taxa in the last column.

select(dat, T_2_9, T_2_10, Taxa)

## # A tibble: 52 x 3
##    T_2_9 T_2_10 Taxa              
##    <dbl>  <dbl> <chr>             
##  1     0      0 Acidobacteria_Gp1 
##  2     0      0 Acidobacteria_Gp10
##  3     0      0 Acidobacteria_Gp14
##  4     0      0 Acidobacteria_Gp16
##  5     0      0 Acidobacteria_Gp17
##  6    15      0 Acidobacteria_Gp18
##  7     0      0 Acidobacteria_Gp21
##  8     0      0 Acidobacteria_Gp22
##  9     0      0 Acidobacteria_Gp3 
## 10     0      0 Acidobacteria_Gp4 
## #  with 42 more rows

dplyr also includes some helper functions that allow you to select variables based on their names. For example, if we only wanted the samples from Vietnam, we could use starts_with().

select(dat, Taxa, starts_with("V")) 

## # A tibble: 52 x 53
##    Taxa  V_1_2 V_10_1 V_11_1 V_11_2 V_11_3 V_12_1 V_12_2 V_13_1 V_13_2
##    <chr> <dbl>  <dbl>  <dbl>  <dbl>  <dbl>  <dbl>  <dbl>  <dbl>  <dbl>
##  1 Acid     0      0      0      0      0      0      0      0      0
##  2 Acid     0      0      0      0      0      0      0      0      0
##  3 Acid     0      0      0      0      0      0      0      0      0
##  4 Acid     0      0      1      0      0      0      0      0      0
##  5 Acid     0      0      1      0      0      0      0      0      0
##  6 Acid     0      0      0      0      0      0      0      0      0
##  7 Acid     0      0      0      0      0      0      0      0      0
##  8 Acid     0      0      0      0      0      0      0      0      0
##  9 Acid     0      0      1      0      1      0      0      0      0
## 10 Acid     0      0      7      0      3      0      0      0      0
## #  with 42 more rows, and 43 more variables: V_14_1 <dbl>, V_14_2 <dbl>,
## #   V_14_3 <dbl>, V_15_1 <dbl>, V_15_2 <dbl>, V_15_3 <dbl>, V_16_1 <dbl>,
## #   V_16_2 <dbl>, V_17_1 <dbl>, V_17_2 <dbl>, V_18_1 <dbl>, V_18_2 <dbl>,
## #   V_18_3 <dbl>, V_18_4 <dbl>, V_19_1 <dbl>, V_19_2 <dbl>, V_19_3 <dbl>,
## #   V_2_1 <dbl>, V_2_2 <dbl>, V_2_3 <dbl>, V_20_1 <dbl>, V_21_1 <dbl>,
## #   V_21_4 <dbl>, V_22_1 <dbl>, V_22_3 <dbl>, V_22_4 <dbl>, V_3_1 <dbl>,
## #   V_3_2 <dbl>, V_4_1 <dbl>, V_4_2 <dbl>, V_5_1 <dbl>, V_5_3 <dbl>,
## #   V_6_1 <dbl>, V_6_2 <dbl>, V_6_3 <dbl>, V_7_1 <dbl>, V_7_2 <dbl>,
## #   V_7_3 <dbl>, V_8_2 <dbl>, V_9_1 <dbl>, V_9_2 <dbl>, V_9_3 <dbl>,
## #   V_9_4 <dbl>

Or all latrines with depths of 4 cm using ends_with().

select(dat, Taxa, ends_with("4")) 

## # A tibble: 52 x 8
##    Taxa               T_4_4 T_5_4 T_9_4 V_18_4 V_21_4 V_22_4 V_9_4
##    <chr>              <dbl> <dbl> <dbl>  <dbl>  <dbl>  <dbl> <dbl>
##  1 Acidobacteria_Gp1      0     0     0      0      0      0    38
##  2 Acidobacteria_Gp10     0     0     0      0      0      0     0
##  3 Acidobacteria_Gp14     0     0     0      0      0      0    17
##  4 Acidobacteria_Gp16     0     0     0      0      0      0     0
##  5 Acidobacteria_Gp17     0     0     0      0      0      0     0
##  6 Acidobacteria_Gp18     1     0     0      0      0      0     0
##  7 Acidobacteria_Gp21     0     0     0      0      0      0     0
##  8 Acidobacteria_Gp22     0     0     0      0      0      0     0
##  9 Acidobacteria_Gp3      0     0     0     10      0      0    19
## 10 Acidobacteria_Gp4      0     0     0      0      0      0     0
## #  with 42 more rows
…
#you can confirm the calculation was performed by inspecting the data frame
#dat %>% mutate(total_OTUs = rowSums(.[,-1])) %>% select(Taxa, total_OTUs)

Note that if I use rowSums() outside of another function (ie. not nested), I do not need to specify the data frame. While mutate creates a new column for the result of the rowSums() function, using rowSums() alone produces an output in vector format of the length of the number of rows in the data frame.

transmute() will also create a new variable, but it will drop the existing variables (it will give you a single column of your new variable). The output for transmute() is a data frame of one column.

dat %>% transmute(total_OTUs = rowSums(.[ , -1]))

## # A tibble: 52 x 1
##    total_OTUs
##         <dbl>
##  1         66
##  2         15
##  3         19
##  4          2
##  5          1
##  6         31
##  7          9
##  8          5
##  9        162
## 10         34
## #  with 42 more rows

#or
dat %>% select(-Taxa) %>% transmute(total_OTUs = apply(., 1, sum))

## # A tibble: 52 x 1
##    total_OTUs
##         <dbl>
##  1         66
##  2         15
##  3         19
##  4          2
##  5          1
##  6         31
##  7          9
##  8          5
##  9        162
## 10         34
## #  with 42 more rows

It is up to you whether you want to keep your data in a data frame or switch to a vector if you are dealing with a single variable. Using a dplyr function will maintain your data in a data frame. Using non-dplyr functions will switch your data to a vector if you have a 1-dimensional output.

dplyr has one more super-useful function, summarize() which allows us to get summary statistics on data. Ill give one example and then well come back to this function once our data is in tidy format.

n() is a dplyr function to count the number of observations in a group - we are simply going to count the instances of a Taxa. In order for R to know we want to count the instances of each Taxa (as opposed to say, each row), there is a function group_by() that we can use to group variables or sets of variables together (treating them like a factor). That way if we had more than one case of Clostridia, they would be grouped together and when we counted the number of cases, the result would be greater than 1. group_by() is useful for calculations and plotting on subsets of your data without having to explicitly change your variables into factors.

We can arrange the results in descending order to see if there is more than one row per Taxa.

dat %>% 
  group_by(Taxa) %>%
  summarize(n = n()) %>%
  arrange(desc(n))

## # A tibble: 52 x 2
##    Taxa                   n
##    <chr>              <int>
##  1 Acidobacteria_Gp1      1
##  2 Acidobacteria_Gp10     1
##  3 Acidobacteria_Gp14     1
##  4 Acidobacteria_Gp16     1
##  5 Acidobacteria_Gp17     1
##  6 Acidobacteria_Gp18     1
##  7 Acidobacteria_Gp21     1
##  8 Acidobacteria_Gp22     1
##  9 Acidobacteria_Gp3      1
## 10 Acidobacteria_Gp4      1
## #  with 42 more rows

Special note: Note that the output of summarize contains the group the calculation summary calculation is performed on and the result of that operation. This is different from mutate, in which a column with the resulting values is added to our data frame and all other columns are retained (see below). Therefore, mutate is the appropriate function when you are carrying the data frame through further calculations, and summarize is more appropriate when the calculation is your ending point.

dat %>% 
  group_by(Taxa) %>%
  mutate(n = n()) %>%
  arrange(desc(n))

## # A tibble: 52 x 83
## # Groups:   Taxa [52]
##    Taxa  T_2_1 T_2_10 T_2_12 T_2_2 T_2_3 T_2_6 T_2_7 T_2_9 T_3_2 T_3_3
##    <chr> <dbl>  <dbl>  <dbl> <dbl> <dbl> <dbl> <dbl> <dbl> <dbl> <dbl>
##  1 Acid     0      0      0     0     0     0     0     0     0     0
##  2 Acid     0      0      0     0     0     0     0     0     0     0
##  3 Acid     0      0      0     0     0     0     0     0     0     0
##  4 Acid     0      0      0     0     0     0     0     0     0     0
##  5 Acid     0      0      0     0     0     0     0     0     0     0
##  6 Acid     0      0      0     2     2     5     0    15     2     1
##  7 Acid     0      0      0     0     0     0     0     0     0     0
##  8 Acid     0      0      0     0     0     0     0     0     0     0
##  9 Acid     0      0      0     0     0     0     0     0     0     0
## 10 Acid     0      0      0     0     0     1     0     0     0     0
## #  with 42 more rows, and 72 more variables: T_3_5 <dbl>, T_4_3 <dbl>,
## #   T_4_4 <dbl>, T_4_5 <dbl>, T_4_6 <dbl>, T_4_7 <dbl>, T_5_2 <dbl>,
## #   T_5_3 <dbl>, T_5_4 <dbl>, T_5_5 <dbl>, T_6_2 <dbl>, T_6_5 <dbl>,
## #   T_6_7 <dbl>, T_6_8 <dbl>, T_9_1 <dbl>, T_9_2 <dbl>, T_9_3 <dbl>,
## #   T_9_4 <dbl>, T_9_5 <dbl>, V_1_2 <dbl>, V_10_1 <dbl>, V_11_1 <dbl>,
## #   V_11_2 <dbl>, V_11_3 <dbl>, V_12_1 <dbl>, V_12_2 <dbl>, V_13_1 <dbl>,
## #   V_13_2 <dbl>, V_14_1 <dbl>, V_14_2 <dbl>, V_14_3 <dbl>, V_15_1 <dbl>,
## #   V_15_2 <dbl>, V_15_3 <dbl>, V_16_1 <dbl>, V_16_2 <dbl>, V_17_1 <dbl>,
## #   V_17_2 <dbl>, V_18_1 <dbl>, V_18_2 <dbl>, V_18_3 <dbl>, V_18_4 <dbl>,
…
