…
</br>

Which latrine depth has the greatest mean number of OTUs?



```r
split_dat %>% 
  group_by(Latrine_Number) %>% 
  summarize(mean = mean(OTUs)) %>% 
  arrange(desc(mean))
```

```
## # A tibble: 22 x 2
##    Latrine_Number  mean
##    <chr>          <dbl>
##  1 17              415.
##  2 16              403.
##  3 11              338.
##  4 20              335.
##  5 10              328.
##  6 8               236.
##  7 15              207.
##  8 3               206.
##  9 18              201.
## 10 12              188.
## # ... with 12 more rows
```
…
Which site had the greatest number of Taxa represented? 


```r
split_dat %>% 
  group_by(Country, Latrine_Number, Depth) %>% 
  filter(OTUs != 0) %>%
  summarize(count = n()) %>% 
  arrange(desc(count))
```

```
## # A tibble: 81 x 4
## # Groups:   Country, Latrine_Number [28]
##    Country Latrine_Number Depth count
##    <chr>   <chr>          <chr> <int>
##  1 V       7              3        36
##  2 V       22             1        31
##  3 V       7              2        29
##  4 T       2              6        27
##  5 V       11             1        27
##  6 V       11             3        27
##  7 T       2              9        26
##  8 V       15             2        26
##  9 V       15             3        26
## 10 V       18             4        26
## # ... with 71 more rows
```
…
__Right join__ returns all rows from y, and all columns from x and y. Rows in y with no match in x will have NA values in the new columns. If there are multiple matches between x and y, all combinations of the matches are returned.


```r
right_join(ndat, jdat, by = c("Site" = "Samples"))
```

```
## # A tibble: 77 x 6
##    Taxa       Site    OTUs    pH  Temp    TS
##    <chr>      <chr>  <int> <dbl> <dbl> <dbl>
##  1 Clostridia T_2_1   6213  7.82  25.1  14.5
##  2 <NA>       T_2_10    NA  9.08  24.2  37.8
##  3 <NA>       T_2_12    NA  8.84  25.1  71.1
##  4 Clostridia T_2_3  10944  6.46  27.9  29.4
##  5 Clostridia T_2_6  12169  7.69  28.7  65.5
##  6 Clostridia T_2_9  17471  7.6   25    46.9
##  7 <NA>       T_3_3     NA  7.68  28.9  14.6
##  8 <NA>       T_3_5     NA  7.69  28.7  14.9
##  9 Clostridia T_4_4  10545  7.84  26.3  28.8
## 10 <NA>       T_4_5     NA  7.95  27.9  46.8
## # ... with 67 more rows
```
…
</br>

__Full join__ returns all rows and all columns from both x and y. Where there are not matching values, returns NA for the one missing.



```r
full_join(ndat, jdat, by = c("Site" = "Samples"))
```

```
## # A tibble: 79 x 6
##    Taxa        Site    OTUs    pH  Temp    TS
##    <chr>       <chr>  <int> <dbl> <dbl> <dbl>
##  1 Clostridia  V_16_2 17572  6.26  16.3  24  
##  2 Clostridia  T_2_9  17471  7.6   25    46.9
##  3 Clostridia  V_17_2 13875  8.14  15.4  25.6
##  4 Clostridia  T_2_6  12169  7.69  28.7  65.5
##  5 Bacteroidia V_17_1 11392  7.39  15.7  25.3
##  6 Clostridia  V_10_1 11180  9.12  18.6  46.3
##  7 Clostridia  T_2_3  10944  6.46  27.9  29.4
##  8 Unknown     T_9_2  10624  7.86  28.5  13.6
##  9 Clostridia  T_4_4  10545  7.84  26.3  28.8
## 10 Clostridia  V_16_1 10043  7.83  17.7  25.1
## # ... with 69 more rows
```
…
